09/24/16 09:47

Problem 1 (5 points):
Score += 5

Problem 2 (5 points):
Score += 5

Problem 3 (5 points):
Score += 5

Problem 4 (25 points):
incorrect output
Score += 20

Total score: 35/40 = 87.5%


Comments:
	lab catch up!

-------------------------------------------------------

09/24/16 11:40

Problem 1 (5 points):
Score += 5

Problem 2 (5 points):
Score += 5

Problem 3 (5 points):
Score += 5

Problem 4 (25 points):
numbers are off by 1 on all of them
Score += 24

Total score: 39/40 = 97.5%

Great job!


Comments:
	lab catch up right now!

-------------------------------------------------------

09/27/16 16:27

Problem 1 (5 points):
Score += 5

Problem 2 (5 points):
Score += 5

Problem 3 (5 points):
Score += 5

Problem 4 (25 points):
missing last letter
missing last letter
missing last letter
missing last letter
missing end letter
incorrect number of characters.
Score += 19

Total score: 34/40 = 85.0%

-------------------------------------------------------

